…
``` r
gene1_79 <- unique(results2$gene1)
lrt <- numeric(length = 79)
for (i in 1:79){
  lrt[i] <- results2 %>%
    filter(gene1 == gene1_79[i]) %>%
    select(1:3) %>%
    calc_lrt_tib()
}
(foo <- tibble(gene1 = gene1_79, gene2 = "ENSMUSG00000024887", lrt = lrt))
```

    ## # A tibble: 79 x 3
    ##    gene1              gene2                lrt
    ##    <chr>              <chr>              <dbl>
    ##  1 ENSMUSG00000009378 ENSMUSG00000024887  17.6
    ##  2 ENSMUSG00000024766 ENSMUSG00000024887  38.4
    ##  3 ENSMUSG00000040565 ENSMUSG00000024887  37.3
    ##  4 ENSMUSG00000041731 ENSMUSG00000024887  44.0
    ##  5 ENSMUSG00000044026 ENSMUSG00000024887  58.1
    ##  6 ENSMUSG00000046138 ENSMUSG00000024887  13.3
    ##  7 ENSMUSG00000046324 ENSMUSG00000024887  26.9
    ##  8 ENSMUSG00000047298 ENSMUSG00000024887  29.6
    ##  9 ENSMUSG00000048120 ENSMUSG00000024887  44.9
    ## 10 ENSMUSG00000048612 ENSMUSG00000024887  64.3
    ## # ... with 69 more rows
…
``` r
gene1_79 <- unique(results2$gene1)
lrt <- numeric(length = 79)
for (i in 1:79){
  lrt[i] <- results2 %>%
    filter(gene1 == gene1_79[i]) %>%
    select(1:3) %>%
    calc_lrt_tib()
}
(foo <- tibble(gene1 = gene1_79, gene2 = anchor, lrt = lrt))
```

    ## # A tibble: 79 x 3
    ##    gene1              gene2                lrt
    ##    <chr>              <chr>              <dbl>
    ##  1 ENSMUSG00000009378 ENSMUSG00000024766  8.98
    ##  2 ENSMUSG00000040565 ENSMUSG00000024766 21.4 
    ##  3 ENSMUSG00000041731 ENSMUSG00000024766 40.0 
    ##  4 ENSMUSG00000044026 ENSMUSG00000024766 57.6 
    ##  5 ENSMUSG00000046138 ENSMUSG00000024766 16.5 
    ##  6 ENSMUSG00000046324 ENSMUSG00000024766 31.9 
    ##  7 ENSMUSG00000047298 ENSMUSG00000024766 35.0 
    ##  8 ENSMUSG00000048120 ENSMUSG00000024766 41.6 
    ##  9 ENSMUSG00000048612 ENSMUSG00000024766 52.0 
    ## 10 ENSMUSG00000049670 ENSMUSG00000024766 39.9 
    ## # ... with 69 more rows
…
``` r
gene1_79 <- unique(results2$gene1)
lrt <- numeric(length = 79)
for (i in 1:79){
  lrt[i] <- results2 %>%
    filter(gene1 == gene1_79[i]) %>%
    select(1:3) %>%
    calc_lrt_tib()
}
(foo <- tibble(gene1 = gene1_79, gene2 = anchor, lrt = lrt))
```

    ## # A tibble: 79 x 3
    ##    gene1              gene2                lrt
    ##    <chr>              <chr>              <dbl>
    ##  1 ENSMUSG00000009378 ENSMUSG00000087303  8.50
    ##  2 ENSMUSG00000024766 ENSMUSG00000087303  3.07
    ##  3 ENSMUSG00000040565 ENSMUSG00000087303 20.5 
    ##  4 ENSMUSG00000041731 ENSMUSG00000087303 40.6 
    ##  5 ENSMUSG00000044026 ENSMUSG00000087303 58.3 
    ##  6 ENSMUSG00000046138 ENSMUSG00000087303 17.1 
    ##  7 ENSMUSG00000046324 ENSMUSG00000087303 30.9 
    ##  8 ENSMUSG00000047298 ENSMUSG00000087303 36.0 
    ##  9 ENSMUSG00000048120 ENSMUSG00000087303 39.8 
    ## 10 ENSMUSG00000048612 ENSMUSG00000087303 53.9 
    ## # ... with 69 more rows
…
``` r
gene1_79 <- unique(results2$gene1)
lrt <- numeric(length = 79)
for (i in 1:79){
  lrt[i] <- results2 %>%
    filter(gene1 == gene1_79[i]) %>%
    select(1:3) %>%
    calc_lrt_tib()
}
(foo <- tibble(gene1 = gene1_79, gene2 = anchor, lrt = lrt))
```

    ## # A tibble: 79 x 3
    ##    gene1              gene2                 lrt
    ##    <chr>              <chr>               <dbl>
    ##  1 ENSMUSG00000009378 ENSMUSG00000089952 40.6  
    ##  2 ENSMUSG00000024766 ENSMUSG00000089952 74.2  
    ##  3 ENSMUSG00000040565 ENSMUSG00000089952 51.2  
    ##  4 ENSMUSG00000041731 ENSMUSG00000089952 42.3  
    ##  5 ENSMUSG00000044026 ENSMUSG00000089952 66.8  
    ##  6 ENSMUSG00000046138 ENSMUSG00000089952  0.813
    ##  7 ENSMUSG00000046324 ENSMUSG00000089952 10.1  
    ##  8 ENSMUSG00000047298 ENSMUSG00000089952 15.7  
    ##  9 ENSMUSG00000048120 ENSMUSG00000089952 47.0  
    ## 10 ENSMUSG00000048612 ENSMUSG00000089952 73.1  
    ## # ... with 69 more rows
…
