…
``` r
foo <- dataset.islet.rnaseq$lod.peaks %>%
  filter(chrom == 19, lod > 10)

(dat <- dataset.islet.rnaseq$annots %>% 
  filter(chr == 19) %>%
  right_join(foo, by = c("gene_id" = "annot.id")) %>%
  filter(chrom == 19, chr == 19) %>%
  arrange(desc(lod)) %>%
    as_tibble()
 )
```

    ## # A tibble: 346 x 15
    ##    gene_id symbol chr   start   end strand middle nearest.marker.… biotype
    ##    <chr>   <chr>  <chr> <dbl> <dbl>  <int>  <dbl> <chr>            <chr>  
    ##  1 ENSMUS… Pyrox… 19    42.7  42.8      -1  42.7  19_42721127      protei…
    ##  2 ENSMUS… Fau    19     6.06  6.06      1   6.06 19_6205523       protei…
    ##  3 ENSMUS… Ms4a8a 19    11.1  11.1      -1  11.1  19_11101925      protei…
    ##  4 ENSMUS… Cacul1 19    60.5  60.6      -1  60.6  19_60485339      protei…
    ##  5 ENSMUS… Asah2  19    32.0  32.1      -1  32.0  19_32054356      protei…
    ##  6 ENSMUS… C0300… 19    29.5  29.6       1  29.6  19_29551490      protei…
    ##  7 ENSMUS… Ptprc… 19     4.15  4.16      1   4.16 19_4267368       protei…
    ##  8 ENSMUS… Tctn3  19    40.6  40.6      -1  40.6  19_40601303      protei…
    ##  9 ENSMUS… Lipo1  19    33.5  33.8      -1  33.6  19_33671910      protei…
    ## 10 ENSMUS… Fth1   19     9.98  9.99      1   9.98 19_9967736       protei…
    ## # ... with 336 more rows, and 6 more variables: module <chr>,
    ## #   hotspot <chr>, marker.id <chr>, chrom <chr>, pos <dbl>, lod <dbl>
…
Define `traits_of_interest` as those in the `expr_chr19_10mb` object.

``` r
colnames(expr_chr19_10mb) -> traits_of_interest
```

``` r
# get peak positions (in Mb) for all traits in traits_of_interest
d1 <- dat[dat$gene_id %in% traits_of_interest, ]
(d2 <- d1[match(x = traits_of_interest, table = d1$gene_id), ])
```

    ## # A tibble: 80 x 15
    ##    gene_id symbol chr   start   end strand middle nearest.marker.… biotype
    ##    <chr>   <chr>  <chr> <dbl> <dbl>  <int>  <dbl> <chr>            <chr>  
    ##  1 ENSMUS… Slc16… 19     34.7  34.7     -1   34.7 19_34707402      protei…
    ##  2 ENSMUS… Kif11  19     37.4  37.4      1   37.4 19_37399704      protei…
    ##  3 ENSMUS… Pten   19     32.8  32.8      1   32.8 19_32773697      protei…
    ##  4 ENSMUS… Plgrkt 19     29.3  29.4     -1   29.4 19_29367672      protei…
    ##  5 ENSMUS… Lipo1  19     33.5  33.8     -1   33.6 19_33671910      protei…
    ##  6 ENSMUS… Lipk   19     34.0  34.0      1   34.0 19_34034981      protei…
    ##  7 ENSMUS… Ankrd… 19     34.1  34.2     -1   34.1 19_34132400      protei…
    ##  8 ENSMUS… Stamb… 19     34.2  34.2      1   34.2 19_34203962      protei…
    ##  9 ENSMUS… Fas    19     34.3  34.3      1   34.3 19_34317647      protei…
    ## 10 ENSMUS… Cdc37… 19     29.0  29.0      1   29.0 19_29004492      protei…
    ## # ... with 70 more rows, and 6 more variables: module <chr>,
    ## #   hotspot <chr>, marker.id <chr>, chrom <chr>, pos <dbl>, lod <dbl>
…
